TIMESTAMP=2016%2d03%2d24T14%3a04%3a41Z&CORRELATIONID=710064cbdd4f9&ACK=Success&VERSION=112%2e0&BUILD=18316154&AMT=52%2e45&CURRENCYCODE=CAD&AVSCODE=X&CVV2MATCH=M&TRANSACTIONID=54621141HA919625HArray
(
    [TIMESTAMP] => 2016-03-24T14:04:41Z
    [CORRELATIONID] => 710064cbdd4f9
    [ACK] => Success
    [VERSION] => 112.0
    [BUILD] => 18316154
    [AMT] => 52.45
    [CURRENCYCODE] => CAD
    [AVSCODE] => X
    [CVV2MATCH] => M
    [TRANSACTIONID] => 54621141HA919625H
)
